…
# get all resources for this package
resources <- list_package_resources("64b54586-6180-4485-83eb-81e8fae3b8fe")

# identify datastore resources; by default, Toronto Open Data sets datastore resource format to CSV for non-geospatial and GeoJSON for geospatial resources
datastore_resources <- filter(resources, tolower(format) %in% c('csv', 'geojson'))

# load the first datastore resource as a sample
covid_data <- filter(datastore_resources, row_number()==1) %>% get_resource()
selected_covid_data = select(covid_data, "Source of Infection")
selected_covid_data

## # A tibble: 17,872 x 1
##    `Source of Infection`
##    <chr>                
##  1 Travel               
##  2 Travel               
##  3 Travel               
##  4 Travel               
##  5 Travel               
##  6 Travel               
##  7 Travel               
##  8 Travel               
##  9 Travel               
## 10 Travel               
## # … with 17,862 more rows
…
